0,5
0,-6,10,10
40
#wall
0,0,160,2
0,40,40,2
-50,-25,60,2
50,-25,60,2
-50,25,60,2
50,25,60,2
-85,-10,30,2
85,-10,30,2
-85,10,30,2
85,10,30,2
-34,10,25,2
-34,-10,25,2
34,-10,25,2
34,10,25,2
-45,-25,3,30
45,-25,3,30
-45,25,3,30
45,25,3,30
-23,0,3,20
23,0,3,20
0,25,3,30
0,-30,3,30
#gold
-90,45
90,45
-90,-45
90,-45
-35,18
35,18
-35,-18
35,-18
-5,45
5,45
0,-48
30,6
-30,6
30,-6
-30,-6
#power
-50,30
50,30
-50,-30
50,-30
#block
0,-12,50,2